2006.04.17 10:28 B C:\Program Files\EasyPHP1-8\www\orchidme\new\images\box\blue_bg.gif <-- orchidme /public_html/images/box blue_bg.gif
2006.04.17 10:28 B C:\Program Files\EasyPHP1-8\www\orchidme\new\images\box\blue_bottom.gif <-- orchidme /public_html/images/box blue_bottom.gif
2006.04.17 10:28 B C:\Program Files\EasyPHP1-8\www\orchidme\new\images\box\blue_bottom_left.gif <-- orchidme /public_html/images/box blue_bottom_left.gif
2006.04.17 10:28 B C:\Program Files\EasyPHP1-8\www\orchidme\new\images\box\blue_bottom_right.gif <-- orchidme /public_html/images/box blue_bottom_right.gif
2006.04.17 10:28 B C:\Program Files\EasyPHP1-8\www\orchidme\new\images\box\blue_middle_left.gif <-- orchidme /public_html/images/box blue_middle_left.gif
2006.04.17 10:28 B C:\Program Files\EasyPHP1-8\www\orchidme\new\images\box\blue_middle_right.gif <-- orchidme /public_html/images/box blue_middle_right.gif
2006.04.17 10:28 B C:\Program Files\EasyPHP1-8\www\orchidme\new\images\box\blue_top.gif <-- orchidme /public_html/images/box blue_top.gif
2006.04.17 10:28 B C:\Program Files\EasyPHP1-8\www\orchidme\new\images\box\blue_top_left.gif <-- orchidme /public_html/images/box blue_top_left.gif
2006.04.17 10:28 B C:\Program Files\EasyPHP1-8\www\orchidme\new\images\box\blue_top_right.gif <-- orchidme /public_html/images/box blue_top_right.gif
2006.04.17 10:28 B C:\Program Files\EasyPHP1-8\www\orchidme\new\images\box\green_bg.gif <-- orchidme /public_html/images/box green_bg.gif
2006.04.17 10:28 B C:\Program Files\EasyPHP1-8\www\orchidme\new\images\box\green_bottom.gif <-- orchidme /public_html/images/box green_bottom.gif
2006.04.17 10:28 B C:\Program Files\EasyPHP1-8\www\orchidme\new\images\box\green_bottom_left.gif <-- orchidme /public_html/images/box green_bottom_left.gif
2006.04.17 10:28 B C:\Program Files\EasyPHP1-8\www\orchidme\new\images\box\green_bottom_right.gif <-- orchidme /public_html/images/box green_bottom_right.gif
2006.04.17 10:28 B C:\Program Files\EasyPHP1-8\www\orchidme\new\images\box\green_middle_left.gif <-- orchidme /public_html/images/box green_middle_left.gif
2006.04.17 10:28 B C:\Program Files\EasyPHP1-8\www\orchidme\new\images\box\green_middle_right.gif <-- orchidme /public_html/images/box green_middle_right.gif
2006.04.17 10:28 B C:\Program Files\EasyPHP1-8\www\orchidme\new\images\box\green_top.gif <-- orchidme /public_html/images/box green_top.gif
2006.04.17 10:28 B C:\Program Files\EasyPHP1-8\www\orchidme\new\images\box\green_top_left.gif <-- orchidme /public_html/images/box green_top_left.gif
2006.04.17 10:28 B C:\Program Files\EasyPHP1-8\www\orchidme\new\images\box\green_top_right.gif <-- orchidme /public_html/images/box green_top_right.gif
2006.04.17 10:28 B C:\Program Files\EasyPHP1-8\www\orchidme\new\images\box\orange_bg.gif <-- orchidme /public_html/images/box orange_bg.gif
2006.04.17 10:28 B C:\Program Files\EasyPHP1-8\www\orchidme\new\images\box\orange_bottom.gif <-- orchidme /public_html/images/box orange_bottom.gif
2006.04.17 10:28 B C:\Program Files\EasyPHP1-8\www\orchidme\new\images\box\orange_bottom_left.gif <-- orchidme /public_html/images/box orange_bottom_left.gif
2006.04.17 10:28 B C:\Program Files\EasyPHP1-8\www\orchidme\new\images\box\orange_bottom_right.gif <-- orchidme /public_html/images/box orange_bottom_right.gif
2006.04.17 10:28 B C:\Program Files\EasyPHP1-8\www\orchidme\new\images\box\orange_middle_left.gif <-- orchidme /public_html/images/box orange_middle_left.gif
2006.04.17 10:28 B C:\Program Files\EasyPHP1-8\www\orchidme\new\images\box\orange_middle_right.gif <-- orchidme /public_html/images/box orange_middle_right.gif
2006.04.17 10:28 B C:\Program Files\EasyPHP1-8\www\orchidme\new\images\box\orange_top.gif <-- orchidme /public_html/images/box orange_top.gif
2006.04.17 10:28 B C:\Program Files\EasyPHP1-8\www\orchidme\new\images\box\orange_top_left.gif <-- orchidme /public_html/images/box orange_top_left.gif
2006.04.17 10:28 B C:\Program Files\EasyPHP1-8\www\orchidme\new\images\box\orange_top_right.gif <-- orchidme /public_html/images/box orange_top_right.gif
2006.04.17 10:28 B C:\Program Files\EasyPHP1-8\www\orchidme\new\images\box\pink_bottom.gif <-- orchidme /public_html/images/box pink_bottom.gif
2006.04.17 10:28 B C:\Program Files\EasyPHP1-8\www\orchidme\new\images\box\pink_bottom_left.gif <-- orchidme /public_html/images/box pink_bottom_left.gif
2006.04.17 10:28 B C:\Program Files\EasyPHP1-8\www\orchidme\new\images\box\pink_bottom_right.gif <-- orchidme /public_html/images/box pink_bottom_right.gif
2006.04.17 10:28 B C:\Program Files\EasyPHP1-8\www\orchidme\new\images\box\pink_middle_left.gif <-- orchidme /public_html/images/box pink_middle_left.gif
2006.04.17 10:28 B C:\Program Files\EasyPHP1-8\www\orchidme\new\images\box\pink_middle_right.gif <-- orchidme /public_html/images/box pink_middle_right.gif
2006.04.17 10:28 B C:\Program Files\EasyPHP1-8\www\orchidme\new\images\box\pink_top.gif <-- orchidme /public_html/images/box pink_top.gif
2006.04.17 10:28 B C:\Program Files\EasyPHP1-8\www\orchidme\new\images\box\pink_top_left.gif <-- orchidme /public_html/images/box pink_top_left.gif
2006.04.17 10:28 B C:\Program Files\EasyPHP1-8\www\orchidme\new\images\box\pink_top_right.gif <-- orchidme /public_html/images/box pink_top_right.gif
2006.04.17 10:28 B C:\Program Files\EasyPHP1-8\www\orchidme\new\images\box\purple_bg.gif <-- orchidme /public_html/images/box purple_bg.gif
2006.04.17 10:28 B C:\Program Files\EasyPHP1-8\www\orchidme\new\images\box\purple_bottom.gif <-- orchidme /public_html/images/box purple_bottom.gif
2006.04.17 10:28 B C:\Program Files\EasyPHP1-8\www\orchidme\new\images\box\purple_bottom_left.gif <-- orchidme /public_html/images/box purple_bottom_left.gif
2006.04.17 10:28 B C:\Program Files\EasyPHP1-8\www\orchidme\new\images\box\purple_bottom_right.gif <-- orchidme /public_html/images/box purple_bottom_right.gif
2006.04.17 10:28 B C:\Program Files\EasyPHP1-8\www\orchidme\new\images\box\purple_middle_left.gif <-- orchidme /public_html/images/box purple_middle_left.gif
2006.04.17 10:28 B C:\Program Files\EasyPHP1-8\www\orchidme\new\images\box\purple_middle_right.gif <-- orchidme /public_html/images/box purple_middle_right.gif
2006.04.17 10:28 B C:\Program Files\EasyPHP1-8\www\orchidme\new\images\box\purple_top.gif <-- orchidme /public_html/images/box purple_top.gif
2006.04.17 10:28 B C:\Program Files\EasyPHP1-8\www\orchidme\new\images\box\purple_top_left.gif <-- orchidme /public_html/images/box purple_top_left.gif
2006.04.17 10:28 B C:\Program Files\EasyPHP1-8\www\orchidme\new\images\box\purple_top_right.gif <-- orchidme /public_html/images/box purple_top_right.gif
2006.04.17 10:28 B C:\Program Files\EasyPHP1-8\www\orchidme\new\images\box\Thumbs.db <-- orchidme /public_html/images/box Thumbs.db
2006.04.17 10:28 B C:\Program Files\EasyPHP1-8\www\orchidme\new\images\box\white_bottom.gif <-- orchidme /public_html/images/box white_bottom.gif
2006.04.17 10:28 B C:\Program Files\EasyPHP1-8\www\orchidme\new\images\box\white_bottom_left.gif <-- orchidme /public_html/images/box white_bottom_left.gif
2006.04.17 10:28 B C:\Program Files\EasyPHP1-8\www\orchidme\new\images\box\white_bottom_right.gif <-- orchidme /public_html/images/box white_bottom_right.gif
2006.04.17 10:28 B C:\Program Files\EasyPHP1-8\www\orchidme\new\images\box\white_middle_left.gif <-- orchidme /public_html/images/box white_middle_left.gif
2006.04.17 10:28 B C:\Program Files\EasyPHP1-8\www\orchidme\new\images\box\white_middle_right.gif <-- orchidme /public_html/images/box white_middle_right.gif
2006.04.17 10:28 B C:\Program Files\EasyPHP1-8\www\orchidme\new\images\box\white_top.gif <-- orchidme /public_html/images/box white_top.gif
2006.04.17 10:28 B C:\Program Files\EasyPHP1-8\www\orchidme\new\images\box\white_top_left.gif <-- orchidme /public_html/images/box white_top_left.gif
2006.04.17 10:28 B C:\Program Files\EasyPHP1-8\www\orchidme\new\images\box\white_top_right.gif <-- orchidme /public_html/images/box white_top_right.gif
